…
## spp of interest for insect

add up the number of ASV’s for species of interest

``` r
asv_per_spp <- taxon_insect %>%
  filter(taxonomic_level_insect == "species") %>%
  group_by(taxon_insect) %>%
  summarize(count = n())
asv_per_spp
```

    ## # A tibble: 26 × 2
    ##    taxon_insect           count
    ##    <chr>                  <int>
    ##  1 Ammodytes hexapterus       1
    ##  2 Anoplopoma fimbria         1
    ##  3 Artedius fenestralis       1
    ##  4 Bos taurus                 1
    ##  5 Clupea pallasii            2
    ##  6 Cymatogaster aggregata     1
    ##  7 Eleginus gracilis          1
    ##  8 Gadus chalcogrammus        3
    ##  9 Gadus macrocephalus        1
    ## 10 Gasterosteus aculeatus     1
    ## # … with 16 more rows
…
